{
    "/backend/js/app.js": "/backend/js/app.js?id=2fe172e329e3f37e977c",
    "/frontend/css/app.css": "/frontend/css/app.css?id=7643d630ac6da44f7d50",
    "/frontend/css/rtl.css": "/frontend/css/rtl.css?id=80f6b043d3387e424227",
    "/frontend/js/app.js": "/frontend/js/app.js?id=4f11f48f7a93a79d77d6"
}
